^C:\USERS\TONI\DOCUMENTS\VISUAL STUDIO 2015\PROJECTS\C7\C7\MAIN.CPP|C:\USERS\TONI\DOCUMENTS\VISUAL STUDIO 2015\PROJECTS\C7\C7\VECTORI.CPP
C:\USERS\TONI\DOCUMENTS\VISUAL STUDIO 2015\PROJECTS\C7\C7\DEBUG\VC140.PDB
C:\USERS\TONI\DOCUMENTS\VISUAL STUDIO 2015\PROJECTS\C7\C7\DEBUG\VC140.IDB
C:\USERS\TONI\DOCUMENTS\VISUAL STUDIO 2015\PROJECTS\C7\C7\DEBUG\VECTORI.OBJ
C:\USERS\TONI\DOCUMENTS\VISUAL STUDIO 2015\PROJECTS\C7\C7\DEBUG\MAIN.OBJ
^C:\USERS\TONI\DOCUMENTS\VISUAL STUDIO 2015\PROJECTS\C7\C7\MAIN.CPP
C:\USERS\TONI\DOCUMENTS\VISUAL STUDIO 2015\PROJECTS\C7\C7\DEBUG\VC140.PDB
C:\USERS\TONI\DOCUMENTS\VISUAL STUDIO 2015\PROJECTS\C7\C7\DEBUG\VC140.IDB
C:\USERS\TONI\DOCUMENTS\VISUAL STUDIO 2015\PROJECTS\C7\C7\DEBUG\MAIN.OBJ
^C:\USERS\TONI\DOCUMENTS\VISUAL STUDIO 2015\PROJECTS\C7\C7\VECTORI.CPP
C:\USERS\TONI\DOCUMENTS\VISUAL STUDIO 2015\PROJECTS\C7\C7\DEBUG\VC140.PDB
C:\USERS\TONI\DOCUMENTS\VISUAL STUDIO 2015\PROJECTS\C7\C7\DEBUG\VC140.IDB
C:\USERS\TONI\DOCUMENTS\VISUAL STUDIO 2015\PROJECTS\C7\C7\DEBUG\VECTORI.OBJ
